…
``` r
#tidy_dfm <- tidy_data_pruned |> 
# count(post_index, word) |> 
# cast_dfm(post_index, word, n)
#tidy_dfm@Dim
#full_data<- convert(tidy_dfm, to = "topicmodels")
#rm(good_common_words, tidy_data, tidy_data_pruned, tidy_dfm, maxndoc, minndoc, templength)
#my computer can't run the number of topics, so i keep tidy data pruned top 20 words, and change to the sentiment analysis
#save.image("Upto_Findk.Rdata")
```

#### 1.2.0.4 Sentiment Analysis

    ## # A tibble: 2,477 × 2
    ##    word       value
    ##    <chr>      <dbl>
    ##  1 abandon       -2
    ##  2 abandoned     -2
    ##  3 abandons      -2
    ##  4 abducted      -2
    ##  5 abduction     -2
    ##  6 abductions    -2
    ##  7 abhor         -3
    ##  8 abhorred      -3
    ##  9 abhorrent     -3
    ## 10 abhors        -3
    ## # ℹ 2,467 more rows
…
